module gotimap

go 1.18

require gioui.org v0.0.0-20221023001956-9f62230c380f

require (
	gioui.org/cpu v0.0.0-20210817075930-8d6a761490d2 // indirect
	gioui.org/shader v1.0.6 // indirect
	github.com/benoitkugler/textlayout v0.1.3 // indirect
	github.com/gioui/uax v0.2.1-0.20220819135011-cda973fac06d // indirect
	github.com/go-text/typesetting v0.0.0-20220411150340-35994bc27a7b // indirect
	golang.org/x/exp/shiny v0.0.0-20220827204233-334a2380cb91 // indirect
	golang.org/x/image v0.0.0-20220722155232-062f8c9fd539 // indirect
	golang.org/x/sys v0.0.0-20220825204002-c680a09ffe64 // indirect
	golang.org/x/text v0.3.7 // indirect
)
